M48
;DRILL file {KiCad 4.0.5+dfsg1-4} date Mon Aug 13 09:13:35 2018
;FORMAT={-:-/ absolute / inch / decimal}
FMAT,2
INCH,TZ
T1C0.039
T2C0.126
%
G90
G05
M72
T1
X1.5Y-1.1
X1.5Y-1.2
X1.5Y-1.3
T2
X1.8Y-1.2
X2.2Y-1.2
T0
M30
