G04 #@! TF.FileFunction,Profile,NP*
%FSLAX46Y46*%
G04 Gerber Fmt 4.6, Leading zero omitted, Abs format (unit mm)*
G04 Created by KiCad (PCBNEW 4.0.5+dfsg1-4) date Mon Aug 13 09:12:26 2018*
%MOMM*%
%LPD*%
G01*
G04 APERTURE LIST*
%ADD10C,0.100000*%
%ADD11C,0.150000*%
G04 APERTURE END LIST*
D10*
D11*
X25400000Y-25400000D02*
X66040000Y-25400000D01*
X25400000Y-35560000D02*
X66040000Y-35560000D01*
X66040000Y-35560000D02*
X66040000Y-25400000D01*
X25400000Y-25400000D02*
X25400000Y-35560000D01*
M02*
