M48
;DRILL file {KiCad 4.0.5+dfsg1-4} date Mon Sep 24 09:19:43 2018
;FORMAT={-:-/ absolute / inch / decimal}
FMAT,2
INCH,TZ
T1C0.016
T2C0.039
T3C0.126
%
G90
G05
M72
T1
X2.4114Y-1.2008
X2.5098Y-1.2992
T2
X1.5157Y-1.1008
X1.5157Y-1.2008
X1.5157Y-1.3008
T3
X1.8Y-1.2
X2.2Y-1.2
T0
M30
