G04 #@! TF.FileFunction,Copper,L2,Bot,Signal*
%FSLAX46Y46*%
G04 Gerber Fmt 4.6, Leading zero omitted, Abs format (unit mm)*
G04 Created by KiCad (PCBNEW 4.0.5+dfsg1-4) date Mon Sep 24 09:19:35 2018*
%MOMM*%
%LPD*%
G01*
G04 APERTURE LIST*
%ADD10C,0.100000*%
%ADD11O,3.014980X1.506220*%
%ADD12C,6.400000*%
%ADD13C,0.600000*%
%ADD14C,0.254000*%
G04 APERTURE END LIST*
D10*
D11*
X38500000Y-33040000D03*
X38500000Y-30500000D03*
X38500000Y-27960000D03*
D12*
X45720000Y-30480000D03*
X55880000Y-30480000D03*
D13*
X63750000Y-33000000D03*
X61250000Y-30500000D03*
D14*
G36*
X65584000Y-35104000D02*
X25856000Y-35104000D01*
X25856000Y-33249815D01*
X36502086Y-33249815D01*
X36575646Y-33510873D01*
X36844900Y-33922760D01*
X37251281Y-34200254D01*
X37732920Y-34301110D01*
X38487300Y-34301110D01*
X38487300Y-33052700D01*
X38512700Y-33052700D01*
X38512700Y-34301110D01*
X39267080Y-34301110D01*
X39748719Y-34200254D01*
X40155100Y-33922760D01*
X40424354Y-33510873D01*
X40497914Y-33249815D01*
X40399408Y-33072481D01*
X43145479Y-33072481D01*
X43508079Y-33546053D01*
X44849779Y-34159129D01*
X46323963Y-34212091D01*
X47706198Y-33696876D01*
X47931921Y-33546053D01*
X48294521Y-33072481D01*
X53305479Y-33072481D01*
X53668079Y-33546053D01*
X55009779Y-34159129D01*
X56483963Y-34212091D01*
X57866198Y-33696876D01*
X58091921Y-33546053D01*
X58454521Y-33072481D01*
X55880000Y-30497961D01*
X53305479Y-33072481D01*
X48294521Y-33072481D01*
X45720000Y-30497961D01*
X43145479Y-33072481D01*
X40399408Y-33072481D01*
X40388419Y-33052700D01*
X38512700Y-33052700D01*
X38487300Y-33052700D01*
X36611581Y-33052700D01*
X36502086Y-33249815D01*
X25856000Y-33249815D01*
X25856000Y-32830185D01*
X36502086Y-32830185D01*
X36611581Y-33027300D01*
X38487300Y-33027300D01*
X38487300Y-31778890D01*
X38512700Y-31778890D01*
X38512700Y-33027300D01*
X40388419Y-33027300D01*
X40497914Y-32830185D01*
X40424354Y-32569127D01*
X40155100Y-32157240D01*
X39748719Y-31879746D01*
X39267080Y-31778890D01*
X38512700Y-31778890D01*
X38487300Y-31778890D01*
X37732920Y-31778890D01*
X37251281Y-31879746D01*
X36844900Y-32157240D01*
X36575646Y-32569127D01*
X36502086Y-32830185D01*
X25856000Y-32830185D01*
X25856000Y-30500000D01*
X36574512Y-30500000D01*
X36660841Y-30934005D01*
X36906685Y-31301937D01*
X37274617Y-31547781D01*
X37708622Y-31634110D01*
X39291378Y-31634110D01*
X39725383Y-31547781D01*
X40093315Y-31301937D01*
X40238960Y-31083963D01*
X41987909Y-31083963D01*
X42503124Y-32466198D01*
X42653947Y-32691921D01*
X43127519Y-33054521D01*
X45702039Y-30480000D01*
X45737961Y-30480000D01*
X48312481Y-33054521D01*
X48786053Y-32691921D01*
X49399129Y-31350221D01*
X49408694Y-31083963D01*
X52147909Y-31083963D01*
X52663124Y-32466198D01*
X52813947Y-32691921D01*
X53287519Y-33054521D01*
X55862039Y-30480000D01*
X55897961Y-30480000D01*
X58472481Y-33054521D01*
X58946053Y-32691921D01*
X59559129Y-31350221D01*
X59612091Y-29876037D01*
X59096876Y-28493802D01*
X58946053Y-28268079D01*
X58472481Y-27905479D01*
X55897961Y-30480000D01*
X55862039Y-30480000D01*
X53287519Y-27905479D01*
X52813947Y-28268079D01*
X52200871Y-29609779D01*
X52147909Y-31083963D01*
X49408694Y-31083963D01*
X49452091Y-29876037D01*
X48936876Y-28493802D01*
X48786053Y-28268079D01*
X48312481Y-27905479D01*
X45737961Y-30480000D01*
X45702039Y-30480000D01*
X43127519Y-27905479D01*
X42653947Y-28268079D01*
X42040871Y-29609779D01*
X41987909Y-31083963D01*
X40238960Y-31083963D01*
X40339159Y-30934005D01*
X40425488Y-30500000D01*
X40339159Y-30065995D01*
X40093315Y-29698063D01*
X39725383Y-29452219D01*
X39291378Y-29365890D01*
X37708622Y-29365890D01*
X37274617Y-29452219D01*
X36906685Y-29698063D01*
X36660841Y-30065995D01*
X36574512Y-30500000D01*
X25856000Y-30500000D01*
X25856000Y-27960000D01*
X36574512Y-27960000D01*
X36660841Y-28394005D01*
X36906685Y-28761937D01*
X37274617Y-29007781D01*
X37708622Y-29094110D01*
X39291378Y-29094110D01*
X39725383Y-29007781D01*
X40093315Y-28761937D01*
X40339159Y-28394005D01*
X40425488Y-27960000D01*
X40411071Y-27887519D01*
X43145479Y-27887519D01*
X45720000Y-30462039D01*
X48294521Y-27887519D01*
X53305479Y-27887519D01*
X55880000Y-30462039D01*
X58454521Y-27887519D01*
X58091921Y-27413947D01*
X56750221Y-26800871D01*
X55276037Y-26747909D01*
X53893802Y-27263124D01*
X53668079Y-27413947D01*
X53305479Y-27887519D01*
X48294521Y-27887519D01*
X47931921Y-27413947D01*
X46590221Y-26800871D01*
X45116037Y-26747909D01*
X43733802Y-27263124D01*
X43508079Y-27413947D01*
X43145479Y-27887519D01*
X40411071Y-27887519D01*
X40339159Y-27525995D01*
X40093315Y-27158063D01*
X39725383Y-26912219D01*
X39291378Y-26825890D01*
X37708622Y-26825890D01*
X37274617Y-26912219D01*
X36906685Y-27158063D01*
X36660841Y-27525995D01*
X36574512Y-27960000D01*
X25856000Y-27960000D01*
X25856000Y-25856000D01*
X65584000Y-25856000D01*
X65584000Y-35104000D01*
X65584000Y-35104000D01*
G37*
X65584000Y-35104000D02*
X25856000Y-35104000D01*
X25856000Y-33249815D01*
X36502086Y-33249815D01*
X36575646Y-33510873D01*
X36844900Y-33922760D01*
X37251281Y-34200254D01*
X37732920Y-34301110D01*
X38487300Y-34301110D01*
X38487300Y-33052700D01*
X38512700Y-33052700D01*
X38512700Y-34301110D01*
X39267080Y-34301110D01*
X39748719Y-34200254D01*
X40155100Y-33922760D01*
X40424354Y-33510873D01*
X40497914Y-33249815D01*
X40399408Y-33072481D01*
X43145479Y-33072481D01*
X43508079Y-33546053D01*
X44849779Y-34159129D01*
X46323963Y-34212091D01*
X47706198Y-33696876D01*
X47931921Y-33546053D01*
X48294521Y-33072481D01*
X53305479Y-33072481D01*
X53668079Y-33546053D01*
X55009779Y-34159129D01*
X56483963Y-34212091D01*
X57866198Y-33696876D01*
X58091921Y-33546053D01*
X58454521Y-33072481D01*
X55880000Y-30497961D01*
X53305479Y-33072481D01*
X48294521Y-33072481D01*
X45720000Y-30497961D01*
X43145479Y-33072481D01*
X40399408Y-33072481D01*
X40388419Y-33052700D01*
X38512700Y-33052700D01*
X38487300Y-33052700D01*
X36611581Y-33052700D01*
X36502086Y-33249815D01*
X25856000Y-33249815D01*
X25856000Y-32830185D01*
X36502086Y-32830185D01*
X36611581Y-33027300D01*
X38487300Y-33027300D01*
X38487300Y-31778890D01*
X38512700Y-31778890D01*
X38512700Y-33027300D01*
X40388419Y-33027300D01*
X40497914Y-32830185D01*
X40424354Y-32569127D01*
X40155100Y-32157240D01*
X39748719Y-31879746D01*
X39267080Y-31778890D01*
X38512700Y-31778890D01*
X38487300Y-31778890D01*
X37732920Y-31778890D01*
X37251281Y-31879746D01*
X36844900Y-32157240D01*
X36575646Y-32569127D01*
X36502086Y-32830185D01*
X25856000Y-32830185D01*
X25856000Y-30500000D01*
X36574512Y-30500000D01*
X36660841Y-30934005D01*
X36906685Y-31301937D01*
X37274617Y-31547781D01*
X37708622Y-31634110D01*
X39291378Y-31634110D01*
X39725383Y-31547781D01*
X40093315Y-31301937D01*
X40238960Y-31083963D01*
X41987909Y-31083963D01*
X42503124Y-32466198D01*
X42653947Y-32691921D01*
X43127519Y-33054521D01*
X45702039Y-30480000D01*
X45737961Y-30480000D01*
X48312481Y-33054521D01*
X48786053Y-32691921D01*
X49399129Y-31350221D01*
X49408694Y-31083963D01*
X52147909Y-31083963D01*
X52663124Y-32466198D01*
X52813947Y-32691921D01*
X53287519Y-33054521D01*
X55862039Y-30480000D01*
X55897961Y-30480000D01*
X58472481Y-33054521D01*
X58946053Y-32691921D01*
X59559129Y-31350221D01*
X59612091Y-29876037D01*
X59096876Y-28493802D01*
X58946053Y-28268079D01*
X58472481Y-27905479D01*
X55897961Y-30480000D01*
X55862039Y-30480000D01*
X53287519Y-27905479D01*
X52813947Y-28268079D01*
X52200871Y-29609779D01*
X52147909Y-31083963D01*
X49408694Y-31083963D01*
X49452091Y-29876037D01*
X48936876Y-28493802D01*
X48786053Y-28268079D01*
X48312481Y-27905479D01*
X45737961Y-30480000D01*
X45702039Y-30480000D01*
X43127519Y-27905479D01*
X42653947Y-28268079D01*
X42040871Y-29609779D01*
X41987909Y-31083963D01*
X40238960Y-31083963D01*
X40339159Y-30934005D01*
X40425488Y-30500000D01*
X40339159Y-30065995D01*
X40093315Y-29698063D01*
X39725383Y-29452219D01*
X39291378Y-29365890D01*
X37708622Y-29365890D01*
X37274617Y-29452219D01*
X36906685Y-29698063D01*
X36660841Y-30065995D01*
X36574512Y-30500000D01*
X25856000Y-30500000D01*
X25856000Y-27960000D01*
X36574512Y-27960000D01*
X36660841Y-28394005D01*
X36906685Y-28761937D01*
X37274617Y-29007781D01*
X37708622Y-29094110D01*
X39291378Y-29094110D01*
X39725383Y-29007781D01*
X40093315Y-28761937D01*
X40339159Y-28394005D01*
X40425488Y-27960000D01*
X40411071Y-27887519D01*
X43145479Y-27887519D01*
X45720000Y-30462039D01*
X48294521Y-27887519D01*
X53305479Y-27887519D01*
X55880000Y-30462039D01*
X58454521Y-27887519D01*
X58091921Y-27413947D01*
X56750221Y-26800871D01*
X55276037Y-26747909D01*
X53893802Y-27263124D01*
X53668079Y-27413947D01*
X53305479Y-27887519D01*
X48294521Y-27887519D01*
X47931921Y-27413947D01*
X46590221Y-26800871D01*
X45116037Y-26747909D01*
X43733802Y-27263124D01*
X43508079Y-27413947D01*
X43145479Y-27887519D01*
X40411071Y-27887519D01*
X40339159Y-27525995D01*
X40093315Y-27158063D01*
X39725383Y-26912219D01*
X39291378Y-26825890D01*
X37708622Y-26825890D01*
X37274617Y-26912219D01*
X36906685Y-27158063D01*
X36660841Y-27525995D01*
X36574512Y-27960000D01*
X25856000Y-27960000D01*
X25856000Y-25856000D01*
X65584000Y-25856000D01*
X65584000Y-35104000D01*
M02*
